{
  "info" : {
    "version" : 1,
    "author" : "xcode"
  },
  "colors" : [
    {
      "idiom" : "universal",
      "color" : {
        "color-space" : "extended-gray",
        "components" : {
          "white" : "1.000",
          "alpha" : "1.000"
        }
      }
    },
    {
      "idiom" : "universal",
      "appearances" : [
        {
          "appearance" : "luminosity",
          "value" : "dark"
        }
      ],
      "color" : {
        "color-space" : "display-p3",
        "components" : {
          "red" : "53",
          "alpha" : "1.000",
          "blue" : "56",
          "green" : "53"
        }
      }
    }
  ]
}